5 10
19 34 13 21 34 16 11 33 20 29 
45 41 40 27 21 17 18 10 42 49 
18 31 28 22 21 49 38 31 45 26 
47 22 16 35 20 48 41 36 47 43 
30 18 45 33 23 18 11 49 10 32 
13 8 11 6 6 9 14 9 14 9 
10 15 13 9 7 11 6 10 6 13 
5 11 14 5 9 10 13 15 10 5 
6 13 14 10 7 11 8 9 13 11 
6 11 13 13 13 14 6 5 10 9 
34 34 34 34 34 