4 10
24 12 39 38 41 14 46 13 37 15 
22 37 38 32 24 15 42 14 15 36 
40 34 41 26 34 32 39 42 39 23 
10 31 22 12 40 29 12 48 14 36 
20 20 12 21 20 10 21 16 7 24 
17 24 12 12 9 18 7 7 21 14 
20 22 19 9 13 15 11 13 11 19 
10 7 17 7 16 8 10 7 17 20 
35 35 35 35 