4 10
28 96 31 90 56 87 37 64 60 66 
86 56 10 39 53 21 85 8 97 29 
71 46 22 82 102 27 60 94 31 16 
46 97 67 7 92 35 34 81 55 23 
79 7 84 29 62 26 73 41 52 53 
24 50 97 75 60 86 24 99 7 83 
45 65 85 24 18 91 58 10 73 86 
57 23 51 96 10 70 81 33 56 79 
101 121 111 111 